{
  "name": "email",
  "css_prefix_text": "icon-",
  "css_use_suffix": false,
  "hinting": true,
  "units_per_em": 1000,
  "ascent": 850,
  "glyphs": [
    {
      "uid": "57a4f84c40a0c44d47387105f162a427",
      "css": "youtube",
      "code": 59392,
      "src": "zocial"
    },
    {
      "uid": "bf882b30900da12fca090d9796bc3030",
      "css": "mail",
      "code": 59393,
      "src": "fontawesome"
    },
    {
      "uid": "ce1d525f3f31024c6a6b38f5e9a88953",
      "css": "facebook-circled",
      "code": 62221,
      "src": "entypo"
    },
    {
      "uid": "21adad41ffebf469b2370d26bcb8a3c4",
      "css": "linkedin-circled",
      "code": 62233,
      "src": "entypo"
    },
    {
      "uid": "eae068bed86aca956cdd10edcaaf24ee",
      "css": "phone-outline",
      "code": 59394,
      "src": "typicons"
    }
  ]
}